<?xml version="1.0" encoding="UTF-8" standalone="no"?>
<!-- Created with Inkscape (http://www.inkscape.org/) -->

<svg
   xmlns:dc="http://purl.org/dc/elements/1.1/"
   xmlns:cc="http://creativecommons.org/ns#"
   xmlns:rdf="http://www.w3.org/1999/02/22-rdf-syntax-ns#"
   xmlns:svg="http://www.w3.org/2000/svg"
   xmlns="http://www.w3.org/2000/svg"
   xmlns:sodipodi="http://sodipodi.sourceforge.net/DTD/sodipodi-0.dtd"
   xmlns:inkscape="http://www.inkscape.org/namespaces/inkscape"
   width="1800"
   height="763"
   viewBox="0 0 476.25001 201.87708"
   version="1.1"
   id="svg8"
   inkscape:export-filename="/home/bonlohi/Documents/TESTgolb/boulga/static/images/postimages/brain.png"
   inkscape:export-xdpi="96"
   inkscape:export-ydpi="96"
   inkscape:version="0.92.3 (2405546, 2018-03-11)"
   sodipodi:docname="brain.svg">
  <defs
     id="defs2">
    <pattern
       y="0"
       x="0"
       height="6"
       width="6"
       patternUnits="userSpaceOnUse"
       id="WMFhbasepattern" />
  </defs>
  <sodipodi:namedview
     id="base"
     pagecolor="#ffffff"
     bordercolor="#e924be"
     borderopacity="1"
     inkscape:pageopacity="0.0"
     inkscape:pageshadow="2"
     inkscape:zoom="0.49497475"
     inkscape:cx="635.20312"
     inkscape:cy="310.63319"
     inkscape:document-units="mm"
     inkscape:current-layer="layer1"
     showgrid="false"
     borderlayer="true"
     showguides="true"
     inkscape:guide-bbox="true"
     units="px"
     inkscape:window-width="1920"
     inkscape:window-height="1027"
     inkscape:window-x="0"
     inkscape:window-y="0"
     inkscape:window-maximized="1">
    <sodipodi:guide
       position="238.125,1032.7294"
       orientation="1,0"
       id="guide1534"
       inkscape:locked="false"
       inkscape:label=""
       inkscape:color="rgb(0,0,255)" />
  </sodipodi:namedview>
  <metadata
     id="metadata5">
    <rdf:RDF>
      <cc:Work
         rdf:about="">
        <dc:format>image/svg+xml</dc:format>
        <dc:type
           rdf:resource="http://purl.org/dc/dcmitype/StillImage" />
        <dc:title></dc:title>
      </cc:Work>
    </rdf:RDF>
  </metadata>
  <g
     inkscape:label="Calque 1"
     inkscape:groupmode="layer"
     id="layer1"
     transform="translate(0,-95.122924)">
    <rect
       style="opacity:1;fill:#483737;fill-opacity:1;stroke:#ffffff;stroke-width:0;stroke-miterlimit:4;stroke-dasharray:none;stroke-dashoffset:0;stroke-opacity:1"
       id="rect1532"
       width="606.1673"
       height="273.68399"
       x="-52.384834"
       y="40.421234" />
    <g
       id="g2610"
       transform="matrix(0.35271074,0,0,0.35271074,163.48259,136.57224)"
       style="fill:none;stroke:#c8b7b7;stroke-width:2.41841221;stroke-miterlimit:4;stroke-dasharray:none;stroke-opacity:1">
      <path
         id="path2584"
         d="m 275.875,66.078125 v -2.820313 c 0,-3.769531 -3.05859,-6.828124 -6.82813,-6.828124 -3.76953,0 -6.82421,3.058593 -6.82421,6.828124 v 2.820313 c 0,7.117187 -5.79297,12.90625 -12.91016,12.90625 -7.12109,0 -12.91016,-5.789063 -12.91016,-12.90625 0,-3.769531 -3.05468,-6.828125 -6.82812,-6.828125 -3.76953,0 -6.82422,3.058594 -6.82422,6.828125 0,14.644531 11.91406,26.5625 26.5625,26.5625 14.64453,0 26.5625,-11.914063 26.5625,-26.5625 z m 0,0"
         inkscape:connector-curvature="0"
         style="fill:none;stroke:#c8b7b7;stroke-width:2.41841221;stroke-miterlimit:4;stroke-dasharray:none;stroke-opacity:1" />
      <path
         id="path2586"
         d="m 163.32422,62.070312 h -1.42188 c -3.76953,0 -6.82422,3.058594 -6.82422,6.828126 0,3.769531 3.05469,6.828124 6.82422,6.828124 h 1.42188 c 11.78125,0 21.36719,9.585938 21.36719,21.367188 0,3.76953 3.05859,6.82422 6.82812,6.82422 3.76953,0 6.82422,-3.05469 6.82422,-6.82422 0.004,-19.3125 -15.70703,-35.023438 -35.01953,-35.023438 z m 0,0"
         inkscape:connector-curvature="0"
         style="fill:none;stroke:#c8b7b7;stroke-width:2.41841221;stroke-miterlimit:4;stroke-dasharray:none;stroke-opacity:1" />
      <path
         id="path2588"
         d="m 291.60156,124.10156 c -5.5625,0 -10.08984,-4.52734 -10.08984,-10.08984 0,-3.76953 -3.05469,-6.82813 -6.82422,-6.82813 -3.76953,0 -6.82813,3.0586 -6.82813,6.82813 0,13.09375 10.64844,23.74219 23.74219,23.74219 3.76953,0 6.82813,-3.05469 6.82813,-6.82422 0,-3.76953 -3.0586,-6.82813 -6.82813,-6.82813 z m 0,0"
         inkscape:connector-curvature="0"
         style="fill:none;stroke:#c8b7b7;stroke-width:2.41841221;stroke-miterlimit:4;stroke-dasharray:none;stroke-opacity:1" />
      <path
         id="path2590"
         d="m 159.08203,107.18359 c -17.75391,0 -32.19922,14.44532 -32.19922,32.19922 0,3.76953 3.0586,6.82813 6.82813,6.82813 3.76953,0 6.82812,-3.0586 6.82812,-6.82813 0,-10.22656 8.31641,-18.54687 18.54297,-18.54687 3.77344,0 6.82813,-3.05469 6.82813,-6.82422 0,-3.76953 -3.05469,-6.82813 -6.82813,-6.82813 z m 0,0"
         inkscape:connector-curvature="0"
         style="fill:none;stroke:#c8b7b7;stroke-width:2.41841221;stroke-miterlimit:4;stroke-dasharray:none;stroke-opacity:1" />
      <path
         id="path2592"
         d="m 232.10547,171.4375 h -34.13281 c -3.76954,0 -6.82422,3.05859 -6.82422,6.82812 v 34.13282 c 0,3.76953 3.05468,6.82812 6.82422,6.82812 h 34.13281 c 3.76953,0 6.82812,-3.05859 6.82812,-6.82812 v -34.13282 c 0,-3.76953 -3.05859,-6.82812 -6.82812,-6.82812 z m -6.82422,34.13281 h -20.48047 v -20.48047 h 20.48047 z m 0,0"
         inkscape:connector-curvature="0"
         style="fill:none;stroke:#c8b7b7;stroke-width:2.41841221;stroke-miterlimit:4;stroke-dasharray:none;stroke-opacity:1" />
      <path
         id="path2594"
         d="m 409.60156,171.4375 c -11.29297,0 -20.48047,9.1875 -20.48047,20.48047 0,8.88672 5.72266,16.39453 13.65235,19.22265 v 14.91016 H 348.16016 V 191.3125 c 19.67187,-2.80078 34.85546,-19.53516 34.85546,-39.75781 0,-10.71875 -4.32031,-20.58203 -11.48437,-27.90235 h 18.84766 c 2.82812,7.92969 10.33593,13.65235 19.22265,13.65235 11.29297,0 20.48047,-9.1875 20.48047,-20.48047 0,-11.29297 -9.1875,-20.48047 -20.48047,-20.48047 -8.88672,0 -16.39453,5.72656 -19.22265,13.65234 H 360.32812 C 359.06641,90.667969 343.98047,75.035156 324.74609,72.710938 l 26.55469,-30.980469 h 11.77344 c 2.82422,7.929687 10.33203,13.652343 19.22265,13.652343 11.29297,0 20.47657,-9.183593 20.47657,-20.476562 0,-11.292969 -9.1836,-20.480469 -20.47657,-20.480469 -8.89062,0 -16.39453,5.722657 -19.22265,13.652344 h -14.91406 c -1.99219,0 -3.88672,0.871094 -5.1836,2.382813 l -22.46875,26.214843 c -2.875,-19.410156 -19.76953,-34.375 -40.17969,-34.375 -5.33203,0 -10.58593,1.042969 -15.48828,3.054688 C 253.59766,9.59375 235.22656,0.0390625 215.47656,0.0390625 c -19.75,0 -38.11719,9.5585935 -49.36328,25.3164065 -4.90234,-2.011719 -10.15625,-3.054688 -15.48437,-3.054688 -20.71485,0 -37.82813,15.40625 -40.32032,35.234375 L 87.101562,30.460938 c -1.296874,-1.515626 -3.1875,-2.382813 -5.179687,-2.382813 H 67.007812 C 64.183594,20.148438 56.675781,14.425781 47.785156,14.425781 c -11.292968,0 -20.476562,9.1875 -20.476562,20.480469 0,11.292969 9.183594,20.476562 20.476562,20.476562 8.890625,0 16.394532,-5.722656 19.222656,-13.652343 H 78.78125 l 26.65234,31.101562 C 86.574219,75.472656 71.867188,90.929688 70.621094,109.99609 H 39.703125 C 36.875,102.07031 29.367188,96.34375 20.480469,96.34375 9.1875,96.34375 0,105.53125 0,116.82422 c 0,11.29297 9.1875,20.48047 20.480469,20.48047 8.886719,0 16.394531,-5.72266 19.222656,-13.65235 h 19.71875 c -7.167969,7.32032 -11.488281,17.1836 -11.488281,27.90235 0,19.92578 14.734375,36.46093 33.988281,39.6289 v 34.8711 H 27.308594 v -14.91407 c 7.925781,-2.82421 13.652344,-10.33203 13.652344,-19.22265 0,-11.29297 -9.1875,-20.47656 -20.480469,-20.47656 C 9.1875,171.44141 0,180.625 0,191.91797 c 0,8.89062 5.722656,16.39453 13.652344,19.22265 v 21.73829 c 0,3.76953 3.058594,6.82812 6.828125,6.82812 h 61.441406 v 17.23047 l -9.09375,6.71875 c -3.257813,-2.1875 -7.175781,-3.46875 -11.386719,-3.46875 -11.292968,0 -20.480468,9.1875 -20.480468,20.48047 0,11.29297 9.1875,20.47656 20.480468,20.47656 11.292969,0 20.480469,-9.18359 20.480469,-20.47656 0,-2.10938 -0.414063,-4.09766 -1.003906,-6.01172 l 11.886719,-8.78516 c 1.742187,-1.28906 2.769531,-3.32422 2.769531,-5.49218 v -68.60547 h 20.480471 v 90.15234 c -7.92969,2.82422 -13.65625,10.33203 -13.65625,19.21875 0,11.29297 9.1875,20.48047 20.48047,20.48047 11.29296,0 20.48046,-9.1875 20.48046,-20.48047 0,-8.88672 -5.72265,-16.39062 -13.65234,-19.21875 v -90.15234 h 34.13281 v 7.54297 h -14.78906 c -3.76953,0 -6.82812,3.05468 -6.82812,6.82812 0,3.76953 3.05859,6.82422 6.82812,6.82422 h 14.78906 v 6.82813 h -14.78906 c -3.76953,0 -6.82812,3.05468 -6.82812,6.82421 0,3.77344 3.05859,6.82813 6.82812,6.82813 h 14.78906 v 6.25781 c 0,3.76953 3.0586,6.82422 6.82813,6.82422 h 6.82422 v 11.37891 c 0,3.76953 3.05859,6.82422 6.82812,6.82422 3.76953,0 6.82813,-3.05469 6.82813,-6.82422 v -11.37891 h 6.82422 v 11.37891 c 0,3.76953 3.05859,6.82422 6.82812,6.82422 3.76953,0 6.82422,-3.05469 6.82422,-6.82422 v -11.37891 h 6.82812 v 11.37891 c 0,3.76953 3.0586,6.82422 6.82813,6.82422 3.76953,0 6.82422,-3.05469 6.82422,-6.82422 v -11.37891 h 6.82812 v 11.37891 c 0,3.76953 3.05469,6.82422 6.82813,6.82422 3.76953,0 6.82422,-3.05469 6.82422,-6.82422 v -11.37891 h 6.82812 c 3.76953,0 6.82422,-3.05469 6.82422,-6.82422 v -6.25781 h 13.65625 c 3.76953,0 6.82422,-3.05469 6.82422,-6.82813 0,-3.76953 -3.05469,-6.82421 -6.82422,-6.82421 h -13.65625 v -6.82813 h 13.65625 c 3.76953,0 6.82422,-3.05469 6.82422,-6.82422 0,-3.77344 -3.05469,-6.82812 -6.82422,-6.82812 h -13.65625 v -7.54297 H 300.375 v 90.15234 c -7.92969,2.82422 -13.65625,10.33203 -13.65625,19.21875 0,11.29297 9.1875,20.48047 20.48047,20.48047 11.29297,0 20.48047,-9.1875 20.48047,-20.48047 0,-8.88672 -5.72266,-16.39062 -13.65235,-19.21875 v -90.15234 h 20.48047 v 68.60547 c 0,2.16797 1.02735,4.20312 2.76953,5.49218 l 11.88672,8.78516 c -0.59375,1.91406 -1.0039,3.90234 -1.0039,6.01172 0,11.29297 9.1875,20.47656 20.48046,20.47656 11.29297,0 20.48047,-9.18359 20.48047,-20.47656 0,-11.29297 -9.1875,-20.48047 -20.48047,-20.48047 -4.21093,0 -8.1289,1.28125 -11.38671,3.46875 l -9.09375,-6.72266 v -17.23046 h 61.4414 c 3.76953,0 6.82422,-3.05469 6.82422,-6.82422 v -21.73828 c 7.92969,-2.82813 13.65235,-10.33594 13.65235,-19.22266 0,-11.29297 -9.1836,-20.48047 -20.47657,-20.48047 z M 382.29297,28.078125 c 3.76172,0 6.82812,3.0625 6.82812,6.828125 0,3.761719 -3.0664,6.824219 -6.82812,6.824219 -3.76172,0 -6.82813,-3.0625 -6.82813,-6.824219 0,-3.765625 3.06641,-6.828125 6.82813,-6.828125 z M 47.785156,41.730469 c -3.761718,0 -6.824218,-3.0625 -6.824218,-6.824219 0,-3.765625 3.0625,-6.828125 6.824218,-6.828125 3.765625,0 6.828125,3.0625 6.828125,6.828125 0,3.761719 -3.0625,6.824219 -6.828125,6.824219 z M 20.480469,185.08984 c 3.761719,0 6.828125,3.06641 6.828125,6.82813 0,3.76172 -3.066406,6.82812 -6.828125,6.82812 -3.761719,0 -6.828125,-3.0664 -6.828125,-6.82812 0,-3.76172 3.066406,-6.82813 6.828125,-6.82813 z m 40.960937,102.40235 c -3.765625,0 -6.828125,-3.0625 -6.828125,-6.82813 0,-3.76172 3.0625,-6.82422 6.828125,-6.82422 3.761719,0 6.824219,3.0625 6.824219,6.82422 0,3.76563 -3.0625,6.82813 -6.824219,6.82813 z m 61.437504,20.48047 c -3.76172,0 -6.82422,-3.06641 -6.82422,-6.82813 0,-3.76172 3.0625,-6.82812 6.82422,-6.82812 3.76562,0 6.82812,3.0664 6.82812,6.82812 0,3.76172 -3.0625,6.82813 -6.82812,6.82813 z m 184.32031,0 c -3.76172,0 -6.82422,-3.06641 -6.82422,-6.82813 0,-3.76172 3.0625,-6.82812 6.82422,-6.82812 3.76562,0 6.82812,3.0664 6.82812,6.82812 0,3.76172 -3.0625,6.82813 -6.82812,6.82813 z m 61.4414,-34.13282 c 3.76172,0 6.82422,3.0625 6.82422,6.82422 0,3.76563 -3.0625,6.82813 -6.82422,6.82813 -3.76562,0 -6.82812,-3.0625 -6.82812,-6.82813 0,-3.76172 3.0625,-6.82422 6.82812,-6.82422 z m 40.96094,-163.84375 c 3.76172,0 6.82422,3.06641 6.82422,6.82813 0,3.76172 -3.0625,6.82812 -6.82422,6.82812 -3.76562,0 -6.82812,-3.0664 -6.82812,-6.82812 0,-3.76172 3.0625,-6.82813 6.82812,-6.82813 z M 20.480469,123.65234 c -3.761719,0 -6.828125,-3.0664 -6.828125,-6.82812 0,-3.76172 3.066406,-6.82813 6.828125,-6.82813 3.761719,0 6.828125,3.06641 6.828125,6.82813 0,3.76172 -3.066406,6.82812 -6.828125,6.82812 z M 252.58594,232.87891 h -75.09375 v -75.09375 h 75.09375 z m 13.65234,-60.8711 h 13.65625 c 3.76953,0 6.82422,-3.05469 6.82422,-6.82812 0,-3.76953 -3.05469,-6.82422 -6.82422,-6.82422 h -13.65625 v -7.39844 c 0,-3.76953 -3.05469,-6.82422 -6.82422,-6.82422 h -6.82812 v -13.65625 c 0,-3.76953 -3.05469,-6.82422 -6.82422,-6.82422 -3.77344,0 -6.82813,3.05469 -6.82813,6.82422 v 13.65625 h -6.82812 v -13.65625 c 0,-3.76953 -3.05469,-6.82422 -6.82422,-6.82422 -3.76953,0 -6.82813,3.05469 -6.82813,6.82422 v 13.65625 H 211.625 v -13.65625 c 0,-3.76953 -3.05469,-6.82422 -6.82422,-6.82422 -3.76953,0 -6.82812,3.05469 -6.82812,6.82422 v 13.65625 h -6.82422 v -13.65625 c 0,-3.76953 -3.0586,-6.82422 -6.82813,-6.82422 -3.76953,0 -6.82812,3.05469 -6.82812,6.82422 v 13.65625 h -6.82422 c -3.76953,0 -6.82813,3.05469 -6.82813,6.82422 v 7.39844 h -14.78906 c -3.76953,0 -6.82812,3.05469 -6.82812,6.82422 0,3.77343 3.05859,6.82812 6.82812,6.82812 h 14.78906 v 6.10938 H 88.597656 c -14.894531,0 -27.011718,-11.91407 -27.011718,-26.5625 0,-9.03125 4.644531,-17.16797 12.003906,-22.00782 6.113281,14.73438 20.640625,25.125 37.562496,25.125 3.76954,0 6.82813,-3.05859 6.82813,-6.82812 0,-3.76953 -3.05859,-6.82422 -6.82813,-6.82422 -12.851559,0 -23.58984,-9.04297 -26.30859,-21.08203 0.01172,-0.53516 0.07031,-1.06641 -0.05078,-1.61719 -0.433594,-1.92187 -0.652344,-3.84765 -0.652344,-5.71875 0,-14.648435 12.117187,-26.562498 27.011714,-26.562498 2.125,0 4.24219,0.351563 6.33985,0.859376 l 0.20312,0.238281 c 1.35157,1.574219 3.26172,2.382812 5.1875,2.382812 1.57422,0 3.15235,-0.539062 4.44141,-1.644531 2.19922,-1.882812 2.86719,-4.855469 1.96094,-7.433594 -0.1211,-1.082031 -0.42188,-2.148437 -1.07032,-3.09375 -3.01171,-4.390625 -4.59765,-9.519531 -4.59765,-14.832031 0,-14.648437 12.11718,-26.558594 27.00781,-26.558594 5.05469,0 10.01172,1.410157 14.33594,4.085938 1.58984,0.980469 3.49218,1.261719 5.30468,0.804687 1.80079,-0.46875 3.33594,-1.652344 4.24219,-3.277344 8.23438,-14.726562 23.9336,-23.871093 40.96485,-23.871093 17.03515,0 32.72656,9.144531 40.96093,23.871093 0.91016,1.625 2.44532,2.808594 4.2461,3.273438 1.79297,0.46875 3.71875,0.179688 5.30078,-0.800781 4.32422,-2.671875 9.28515,-4.085938 14.33984,-4.085938 14.89063,0 27.00781,11.910157 27.00781,26.558594 0,5.316406 -1.58984,10.445313 -4.59765,14.828125 -0.0352,0.04687 -0.043,0.101562 -0.0742,0.152344 l -0.64453,0.75 c -2.45313,2.863281 -2.125,7.175781 0.74219,9.628906 1.28515,1.101562 2.86718,1.644531 4.4375,1.644531 1.88671,0 3.74609,-0.800781 5.08984,-2.3125 2.48047,-0.714843 4.99219,-1.167969 7.51562,-1.167969 14.89063,0 27.00782,11.914063 27.00782,26.562498 0,1.8711 -0.21875,3.79688 -0.64844,5.72656 -0.12109,0.53516 -0.0586,1.0625 -0.0508,1.59375 -2.70703,12.04688 -13.45703,21.09375 -26.3086,21.09375 -3.77343,0 -6.82812,3.0586 -6.82812,6.82813 0,3.76953 3.05469,6.82812 6.82812,6.82812 16.91797,0 31.44532,-10.39453 37.5586,-25.1289 7.35937,4.83984 12.0039,12.97656 12.0039,22.01172 0,14.64453 -12.11718,26.5625 -27.00781,26.5625 h -76.11328 z m 143.36328,26.73828 c -3.76562,0 -6.82812,-3.0664 -6.82812,-6.82812 0,-3.76172 3.0625,-6.82813 6.82812,-6.82813 3.76172,0 6.82422,3.06641 6.82422,6.82813 0,3.76172 -3.0625,6.82812 -6.82422,6.82812 z m 0,0"
         inkscape:connector-curvature="0"
         style="fill:none;stroke:#c8b7b7;stroke-width:2.41841221;stroke-miterlimit:4;stroke-dasharray:none;stroke-opacity:1" />
    </g>
  </g>
</svg>
